459286 591373
324069 387016
253356 912322
636064 864913
374270 919727
262791 84707
839168 431511
817204 542816
658035 214391
653569 739756
817180 112647
536967 579190
174154 33181
860240 220625
691415 483136
312467 784627
973471 512232
141547 989385
275800 87208
344420 794280
492323 147953
525144 628128
685595 908846
108940 132910
627086 209218
764794 265094
413640 558240
497828 264063
522121 419592
445647 691635
747328 253008
459507 581016
339618 993451
803024 375980
666351 868717
278628 171483
523212 111454
487981 811344
203765 887518
855851 504691
590274 663618
413664 702368
691348 655144
861685 444132
482624 277715
147400 174106
295000 52313
661564 974248
422935 170529
192627 825307
342435 192892
317301 347798
774833 742553
409003 198081
538155 49899
296615 177464
866792 122292
334969 398565
876705 803436
23640 753912
520388 66801
303322 901608
127656 130176
369309 259892
631704 364455
893584 764998
896598 728894
975466 961451
790404 591925
793009 962929
411360 874745
882325 341049
606653 113756
657167 927762
132940 62682
76214 861409
750129 152630
650722 385660
16140 126572
57251 540520
388671 215971
545635 720928
78340 626426
894475 607001
47120 513027
417059 100730
583318 393981
240363 323254
212372 352431
217304 205457
82567 515748
493562 47394
767732 213792
585938 37127
874595 147033
729038 410766
241245 525790
636419 147377
594773 59965
445383 790738
687015 95101
26876 289570
766311 302268
998314 725899
470387 114429
209672 496340
725903 739241
315874 530900
330042 600386
522789 737999
447972 574736
337743 921780
341204 434955
709932 469580
317237 847596
627455 675420
188257 724074
649946 706951
571643 18079
166408 589905
705353 335861
103106 281973
713397 796388
56171 479192
570218 204142
20885 363368
588769 966866
702394 750229
928657 460551
351912 400859
921070 201613
266474 76742
970429 248740
296330 780888
342502 312809
648949 954231
421102 61826
859732 62004
268477 913319
117051 44279
201525 704945
732784 263810
805329 770622
890010 285385
823139 67270
18056 729852
323675 332357
149539 916812
305818 923411
693966 911335
400055 18514
798652 972036
145303 810842
609437 984340
763568 516683
820171 391319
792251 704977
943438 605205
422713 55750
42374 216814
283252 438950
588115 800223
747115 389657
609270 63107
241056 270197
838541 567543
531127 729342
848361 711997
53016 517424
703535 212814
784702 965796
303332 23347
818497 594992
808126 262096
703288 735957
452182 285452
769728 711098
591659 304305
867022 656604
449025 731859
925178 935760
347740 815603
960484 707696
780549 349341
530701 277487
664480 294484
853718 714487
689627 148786
32943 648520
322325 524808
206889 200875
849136 264725
112455 654192
223750 357215
93274 859582
501330 856750
688340 269512
276289 507457
960443 181613
620260 99020
523665 418812
846529 435877
726454 499405
597586 167760
562497 301703
5881 616898
747413 985753
336040 978827
696281 905173
630636 189434
365270 386562
985970 557417
131239 119385
406237 416921
242020 683731
821752 116174
968082 108495
569886 737303
618866 335518
390988 718792
938648 434528
320521 532121
991860 996852
966218 590037
